{
  "version": "1.0.0-*",
  "description": "MultiplesOf3And5 Console Application",
  "tags": [""],
  "projectUrl": "",
  "licenseUrl": "",

  "dependencies": {},

  "commands": {
    "run": "run"
  },

  "frameworks": {
    "dnx451": {},
    "dnxcore50": {
      "dependencies": {
        "System.Collections": "4.0.10-beta-*",
        "System.Linq": "4.0.0-beta-*",
        "System.Threading": "4.0.10-beta-*",
        "Microsoft.CSharp": "4.0.0-beta-*",
        "System.Console": "4.0.0-beta-*",
        "System.Runtime": "4.0.20-beta-*"
      }
    }
  }
}
